.......................
----------------------------------------------------------------------
Ran 23 tests in 0.015s

OK
Name             Stmts   Miss Branch BrPart  Cover   Missing
------------------------------------------------------------
Collatz.py          39      0     14      0   100%
TestCollatz.py      89      0      0      0   100%
------------------------------------------------------------
TOTAL              128      0     14      0   100%
