..................
----------------------------------------------------------------------
Ran 18 tests in 0.477s

OK
Name             Stmts   Miss Branch BrPart  Cover   Missing
------------------------------------------------------------
Collatz.py          47      1     20      2    96%   32, 79->81
TestCollatz.py      83      2      0      0    98%   79-80
------------------------------------------------------------
TOTAL              130      3     20      2    97%
