....................
----------------------------------------------------------------------
Ran 20 tests in 0.348s

OK
Name             Stmts   Miss Branch BrPart  Cover   Missing
------------------------------------------------------------
Collatz.py          41      0     16      0   100%
TestCollatz.py      88      0      0      0   100%
------------------------------------------------------------
TOTAL              129      0     16      0   100%