1 10 20
100 200 125
201 210 89
900 1000 174
99 101 26
100 100 26
100 174 125
100 176 125
249 249 48
249 250 110
249 251 110
250 250 110
250 251 110
250 324 131
250 326 131
324 326 25
325 325 25
399 399 121
399 400 121
399 401 121
400 400 28
400 401 28
400 474 134
400 476 134
474 476 36
475 475 28
549 549 93
549 550 93
549 551 93
550 550 93
550 551 93
550 624 137
550 626 137
624 626 132
625 625 26
699 699 65
699 700 83
699 701 83
700 700 83
700 701 83
700 774 171
700 776 171
774 776 153
775 775 153
849 849 60
849 850 60
849 851 60
850 850 60
850 851 60
850 924 179
850 926 179
924 926 130
925 925 130
999 999 50
999 1000 112
999 1001 143
1000 1000 112
1000 1001 143
1000 1749 182
1000 1751 182
1074 1076 32
1075 1075 24
2499 2499 178
2499 2500 178
2499 2501 178
2500 2500 28
2500 2501 28
2500 3249 217
2500 3251 217
3249 3251 137
3250 3250 137
3999 3999 189
3999 4000 189
3999 4001 189
4000 4000 114
4000 4001 114
4000 4749 215
4000 4751 215
4749 4751 166
4750 4750 166
5499 5499 68
5499 5500 68
5499 5501 68
5500 5500 42
5500 5501 42
5500 6249 262
5500 6251 262
6249 6251 156
6250 6250 125
6999 6999 133
6999 7000 133
6999 7001 133
7000 7000 32
7000 7001 32
7000 7749 239
7000 7751 239
7749 7751 177
7750 7750 53
8499 8499 128
8499 8500 128
8499 8501 128
8500 8500 128
8500 8501 128
8500 9249 247
8500 9251 247
9249 9251 185
9250 9250 35
9999 9999 92
9999 10000 92
9999 10001 180
10000 10000 30
10000 10001 180
10000 17499 276
10000 17501 276
10749 10751 193
10750 10750 100
24999 24999 88
24999 25000 127
24999 25001 127
25000 25000 127
25000 25001 127
25000 32499 308
25000 32501 308
32499 32501 99
32500 32500 68
39999 39999 68
39999 40000 68
39999 40001 169
40000 40000 32
40000 40001 169
40000 47499 314
40000 47501 314
47499 47501 146
47500 47500 146
54999 54999 92
54999 55000 92
54999 55001 92
55000 55000 92
55000 55001 92
55000 62499 335
55000 62501 335
62499 62501 149
62500 62500 149
69999 69999 144
69999 70000 144
69999 70001 144
70000 70000 82
70000 70001 82
70000 77499 351
70000 77501 351
77499 77501 170
77500 77500 170
84999 84999 227
84999 85000 227
84999 85001 227
85000 85000 59
85000 85001 227
85000 92499 333
85000 92501 333
92499 92501 165
92500 92500 54
99999 99999 227
